G04 CAM350 V9.0 (Build 156) Date:  Wed Jul 17 12:38:21 2019 *
G04 Database: c:\1\634\100.0000634.cam *
G04 Layer 9: 1000000634-SPT *
%FSLAX25Y25*%
%MOIN*%
%SFA1.000B1.000*%

%MIA0B0*%
%IPPOS*%
%AMMACRO39*
20,1,0.19685,-0.06960,-0.06960,0.06960,0.06960,0.00000*
%
%ADD10C,0.03937*%
%ADD19C,0.03937*%
%ADD123R,0.06299X0.03150*%
%ADD124R,0.11811X0.08268*%
%ADD125R,0.03937X0.10630*%
%ADD139R,0.03937X0.01969*%
%ADD143R,0.01772X0.05709*%
%ADD146R,0.04402X0.02799*%
%ADD147R,0.05905X0.05905*%
%ADD149R,0.05118X0.11811*%
%ADD161R,0.02992X0.02598*%
%ADD162R,0.02598X0.02992*%
%ADD197R,0.02799X0.04402*%
%ADD211R,0.01969X0.03937*%
%ADD212R,0.02362X0.08661*%
%ADD213R,0.01378X0.04528*%
%ADD214R,0.04528X0.01378*%
%ADD215R,0.04134X0.02559*%
%ADD216R,0.02362X0.06102*%
%ADD217R,0.06102X0.02362*%
%ADD218R,0.02559X0.04134*%
%ADD220R,0.05905X0.04331*%
%ADD221R,0.04921X0.04331*%
%ADD222R,0.08268X0.06693*%
%ADD223R,0.09449X0.12992*%
%ADD224R,0.05905X0.07480*%
%ADD227MACRO39*%
%LN1000000634-SPT*%
%LPD*%
G54D19*
X25591Y45276D03*
X801181D03*
Y427165D03*
G54D125*
X85039Y108268D03*
X96063D03*
G54D124*
X29606Y387815D03*
Y427185D03*
G54D161*
X37402Y52362D03*
Y46063D03*
X45276Y52362D03*
Y46063D03*
X70000Y371850D03*
Y378150D03*
X80000Y304350D03*
Y310650D03*
X87500Y304350D03*
Y310650D03*
X77500Y371850D03*
Y378150D03*
X85000D03*
Y371850D03*
X102500Y289350D03*
Y295650D03*
X131890Y81890D03*
Y75591D03*
Y138583D03*
Y144882D03*
X122500Y173701D03*
Y193701D03*
Y200000D03*
Y180000D03*
Y186299D03*
X145000Y199350D03*
X122500Y206299D03*
X145000Y205650D03*
X162500Y216850D03*
Y223150D03*
X147500Y269350D03*
Y275650D03*
X185000Y199350D03*
X177500Y216850D03*
Y223150D03*
X185000Y205650D03*
X170000Y216850D03*
Y223150D03*
X185000D03*
Y216850D03*
X212500Y269350D03*
Y275650D03*
Y314350D03*
Y320650D03*
X370000Y106299D03*
Y100000D03*
Y93701D03*
X391732Y61811D03*
Y68110D03*
X383858Y150394D03*
X391732D03*
X383858Y156693D03*
Y168504D03*
Y162205D03*
X391732Y156693D03*
X399606Y61811D03*
Y68110D03*
X411417Y150394D03*
X403543D03*
X411417Y156693D03*
Y168504D03*
Y162205D03*
X403543Y156693D03*
X492126Y103543D03*
Y97244D03*
X547244Y183858D03*
Y190157D03*
Y262598D03*
Y268898D03*
Y341339D03*
Y347638D03*
Y420079D03*
Y426378D03*
X568898Y190157D03*
Y183858D03*
Y268898D03*
Y262598D03*
Y347638D03*
Y341339D03*
Y426378D03*
Y420079D03*
X590551Y183858D03*
Y190157D03*
Y262598D03*
Y268898D03*
Y341339D03*
Y347638D03*
Y420079D03*
Y426378D03*
X647638Y190157D03*
Y183858D03*
X625984D03*
Y190157D03*
X647638Y268898D03*
Y262598D03*
X625984D03*
Y268898D03*
X647638Y347638D03*
Y341339D03*
X625984D03*
Y347638D03*
X647638Y426378D03*
Y420079D03*
X625984D03*
Y426378D03*
X669291Y183858D03*
Y190157D03*
Y262598D03*
Y268898D03*
Y341339D03*
Y347638D03*
Y420079D03*
Y426378D03*
X704724Y183858D03*
Y190157D03*
Y262598D03*
Y268898D03*
Y341339D03*
Y347638D03*
Y420079D03*
Y426378D03*
X726378Y190157D03*
Y183858D03*
Y268898D03*
Y262598D03*
Y347638D03*
Y341339D03*
Y426378D03*
Y420079D03*
X753937Y52362D03*
Y46063D03*
X761811Y52362D03*
Y46063D03*
X748031Y183858D03*
Y190157D03*
Y262598D03*
Y268898D03*
Y341339D03*
Y347638D03*
Y420079D03*
Y426378D03*
G54D227*
X332217Y229854D03*
Y360697D03*
X463059Y229854D03*
Y360697D03*
G54D217*
X86963Y177500D03*
Y192500D03*
Y197500D03*
Y187500D03*
Y182500D03*
Y207500D03*
Y202500D03*
X108037Y177500D03*
Y197500D03*
Y192500D03*
Y187500D03*
Y182500D03*
Y207500D03*
Y202500D03*
G54D162*
X43150Y167500D03*
X36850D03*
X43150Y177500D03*
X36850D03*
X51850Y167500D03*
X43150Y197500D03*
X36850D03*
X43150Y187500D03*
X36850D03*
X51850D03*
Y197500D03*
X43150Y207500D03*
X36850D03*
X43150Y217500D03*
X36850D03*
X51850Y207500D03*
Y217500D03*
X43150Y310000D03*
X36850D03*
X42894Y329626D03*
X36594D03*
X36850Y320000D03*
X43150D03*
X42894Y349626D03*
X36594D03*
X42894Y339626D03*
X36594D03*
X58150Y167500D03*
Y187500D03*
Y197500D03*
Y207500D03*
Y217500D03*
X66850Y295000D03*
X73150D03*
X66850Y310000D03*
X73150D03*
X54350D03*
X60650D03*
X94350Y167500D03*
X88150Y265000D03*
X81850D03*
X88150Y275000D03*
X81850D03*
X100650Y167500D03*
X144350Y377500D03*
Y402500D03*
Y390000D03*
Y415000D03*
Y427500D03*
X160650Y162500D03*
X154350D03*
X155650Y262500D03*
X149350D03*
X158150Y327500D03*
X151850D03*
X150650Y377500D03*
Y402500D03*
Y390000D03*
Y415000D03*
Y427500D03*
X205512Y68898D03*
X211811D03*
X206850Y205000D03*
X213150D03*
X206850Y212500D03*
X213150D03*
X205650Y377500D03*
X199350D03*
X205650Y402500D03*
X199350D03*
X205650Y390000D03*
X199350D03*
X205650Y427500D03*
X199350D03*
X205650Y415000D03*
X199350D03*
X279350Y245000D03*
Y235000D03*
Y255000D03*
Y265000D03*
X280650Y275000D03*
X274350D03*
X280650Y315000D03*
X274350D03*
X280650Y295000D03*
X274350D03*
X280650Y305000D03*
X274350D03*
X280650Y325000D03*
X274350D03*
X280650Y335000D03*
X274350D03*
X280650Y355000D03*
X274350D03*
X280650Y345000D03*
X274350D03*
X280650Y375000D03*
X274350D03*
X280650Y385000D03*
X274350D03*
X280650Y365000D03*
X274350D03*
X280650Y395000D03*
X274350D03*
X280650Y405000D03*
X274350D03*
X285650Y245000D03*
Y235000D03*
Y255000D03*
Y265000D03*
X408150Y80000D03*
X401850D03*
G54D149*
X112205Y68504D03*
Y88976D03*
Y131496D03*
Y151969D03*
G54D216*
X392106Y111024D03*
Y89764D03*
X407106D03*
X402106D03*
X397106D03*
X402106Y111024D03*
X397106D03*
X407106D03*
G54D147*
X163780Y68898D03*
X174803D03*
X186988Y162500D03*
X198012D03*
G54D197*
X51200Y177500D03*
X69035Y66929D03*
X58800Y177500D03*
X66200Y255000D03*
X73800D03*
X66200Y285000D03*
X73800D03*
X76635Y66929D03*
X98800Y222500D03*
X91200D03*
X104468Y102362D03*
X112068D03*
X104468Y118110D03*
X112068D03*
G54D139*
X418110Y61220D03*
Y68701D03*
Y64961D03*
X428346Y61220D03*
X441732D03*
X428346Y64961D03*
Y68701D03*
X441732D03*
Y64961D03*
X430315Y132087D03*
X420079D03*
X430315Y135827D03*
Y139567D03*
X420079D03*
Y135827D03*
X451969Y61220D03*
Y64961D03*
Y68701D03*
X453937Y132087D03*
X443701D03*
X453937Y135827D03*
Y139567D03*
X443701D03*
Y135827D03*
X465354Y61220D03*
X475591D03*
X465354Y68701D03*
Y64961D03*
X475591D03*
Y68701D03*
X477559Y132087D03*
X467323D03*
X477559Y135827D03*
Y139567D03*
X467323D03*
Y135827D03*
X488976Y61220D03*
X499213D03*
X488976Y68701D03*
Y64961D03*
X499213D03*
Y68701D03*
X501181Y132087D03*
X490945D03*
X501181Y135827D03*
Y139567D03*
X490945D03*
Y135827D03*
G54D222*
X154370Y196988D03*
Y208012D03*
X175630Y196988D03*
Y208012D03*
G54D143*
X462697Y88484D03*
X460138D03*
X457579D03*
X455020D03*
X452461D03*
X449902D03*
Y112303D03*
X452461D03*
X455020D03*
X457579D03*
X460138D03*
X462697D03*
X480610Y88484D03*
X483169D03*
X478051D03*
X475492D03*
X472933D03*
X470374D03*
X467815D03*
X465256D03*
X480610Y112303D03*
X483169D03*
X465256D03*
X467815D03*
X470374D03*
X472933D03*
X475492D03*
X478051D03*
G54D212*
X52500Y320906D03*
Y359094D03*
X72500Y320906D03*
X67500D03*
X62500D03*
X57500D03*
X67500Y359094D03*
X72500D03*
X62500D03*
X57500D03*
X87500Y320906D03*
X82500D03*
X77500D03*
X82500Y359094D03*
X87500D03*
X77500D03*
G54D224*
X600000Y85827D03*
Y103150D03*
X616535Y85827D03*
X608268D03*
Y103150D03*
X616535D03*
X687008Y85827D03*
X678740D03*
Y103150D03*
X687008D03*
X695276Y85827D03*
Y103150D03*
X785433Y144882D03*
X777165D03*
Y162205D03*
X785433D03*
Y223622D03*
X777165D03*
Y240945D03*
X785433D03*
Y302362D03*
X777165D03*
Y319685D03*
X785433D03*
Y381102D03*
X777165D03*
Y398425D03*
X785433D03*
X793701Y144882D03*
Y162205D03*
Y223622D03*
Y240945D03*
Y302362D03*
Y319685D03*
Y381102D03*
Y398425D03*
G54D123*
X41220Y407500D03*
Y402579D03*
Y397657D03*
Y417343D03*
Y412421D03*
G54D213*
X165236Y272559D03*
Y317441D03*
X167205Y272559D03*
X169173D03*
X171142D03*
X173110D03*
X175079D03*
X177047D03*
X179016D03*
X180984D03*
X182953D03*
X184921D03*
X186890D03*
X188858D03*
Y317441D03*
X186890D03*
X184921D03*
X182953D03*
X180984D03*
X179016D03*
X177047D03*
X175079D03*
X173110D03*
X171142D03*
X169173D03*
X167205D03*
X190827Y272559D03*
X192795D03*
X194764D03*
Y317441D03*
X192795D03*
X190827D03*
G54D146*
X598425Y119942D03*
Y112342D03*
X618110Y119942D03*
Y112342D03*
X608268Y119942D03*
Y112342D03*
X687008Y119942D03*
Y112342D03*
X677165Y119942D03*
Y112342D03*
X696850Y119942D03*
Y112342D03*
X775591Y178997D03*
Y171397D03*
Y257737D03*
Y250137D03*
Y336477D03*
Y328877D03*
Y407617D03*
Y415217D03*
X795276Y178997D03*
Y171397D03*
X785433Y178997D03*
Y171397D03*
X795276Y257737D03*
Y250137D03*
X785433Y257737D03*
Y250137D03*
X795276Y336477D03*
Y328877D03*
X785433Y336477D03*
Y328877D03*
X795276Y407617D03*
X785433D03*
X795276Y415217D03*
X785433D03*
G54D215*
X66339Y52953D03*
Y45472D03*
X55709D03*
Y49213D03*
Y52953D03*
X782874D03*
Y45472D03*
X772244D03*
Y49213D03*
Y52953D03*
G54D214*
X157559Y292047D03*
Y290079D03*
Y288110D03*
Y286142D03*
Y284173D03*
Y282205D03*
Y280236D03*
Y309764D03*
Y307795D03*
Y305827D03*
Y303858D03*
Y301890D03*
Y299921D03*
Y297953D03*
Y295984D03*
Y294016D03*
X202441Y280236D03*
Y282205D03*
Y284173D03*
Y286142D03*
Y288110D03*
Y290079D03*
Y292047D03*
Y294016D03*
Y295984D03*
Y297953D03*
Y299921D03*
Y301890D03*
Y303858D03*
Y305827D03*
Y307795D03*
Y309764D03*
G54D223*
X59843Y84646D03*
Y131890D03*
X85827Y84646D03*
Y131890D03*
G54D220*
X197500Y196457D03*
Y203543D03*
X222500Y196457D03*
Y203543D03*
G54D221*
X212776Y377500D03*
Y402500D03*
Y390000D03*
Y427500D03*
Y415000D03*
X222224Y377500D03*
Y402500D03*
Y390000D03*
Y427500D03*
Y415000D03*
G54D218*
X73740Y264882D03*
X70000D03*
X66260D03*
X70000Y275118D03*
X73740D03*
X66260D03*
G54D211*
X263760Y234882D03*
X267500D03*
X271240D03*
Y245118D03*
X267500D03*
X263760D03*
X271240Y265118D03*
X267500D03*
X263760D03*
Y254882D03*
X267500D03*
X271240D03*
X266240Y285118D03*
X262500D03*
X258760D03*
Y274882D03*
X262500D03*
X266240D03*
Y305118D03*
X262500D03*
X258760D03*
Y294882D03*
X262500D03*
X266240D03*
X258760Y314882D03*
X262500D03*
X266240D03*
X258760Y334882D03*
X262500D03*
X266240D03*
Y325118D03*
X262500D03*
X258760D03*
X266240Y345118D03*
X262500D03*
X258760D03*
Y354882D03*
X262500D03*
X266240D03*
Y365118D03*
X262500D03*
X258760D03*
X266240Y385118D03*
X262500D03*
X258760D03*
Y374882D03*
X262500D03*
X266240D03*
Y405118D03*
X262500D03*
X258760D03*
Y394882D03*
X262500D03*
X266240D03*
G54D19*
X130000Y345000D03*
X230000Y245000D03*
G54D10*
G01X18415Y579646D02*
X15955Y582106D01*
X12264Y583337D01*
X7343D01*
X3652Y582106D01*
X1191Y579646D01*
Y577185D01*
X2421Y574724D01*
X3652Y573494D01*
X6112Y572264D01*
X13494Y569803D01*
X15955Y568573D01*
X17185Y567343D01*
X18415Y564882D01*
Y561191D01*
X15955Y558730D01*
X12264Y557500D01*
X7343D01*
X3652Y558730D01*
X1191Y561191D01*
X33179Y583337D02*
X30719Y582106D01*
X28258Y579646D01*
X27028Y577185D01*
X25797Y573494D01*
Y567343D01*
X27028Y563652D01*
X28258Y561191D01*
X30719Y558730D01*
X33179Y557500D01*
X38100D01*
X40561Y558730D01*
X43022Y561191D01*
X44252Y563652D01*
X45482Y567343D01*
Y573494D01*
X44252Y577185D01*
X43022Y579646D01*
X40561Y582106D01*
X38100Y583337D01*
X33179D01*
X54094D02*
Y557500D01*
Y557500D02*
X68858D01*
X75010Y583337D02*
Y557500D01*
Y583337D02*
X83622D01*
X87313Y582106D01*
X89774Y579646D01*
X91004Y577185D01*
X92234Y573494D01*
Y567343D01*
X91004Y563652D01*
X89774Y561191D01*
X87313Y558730D01*
X83622Y557500D01*
X75010D01*
X100846Y583337D02*
Y557500D01*
Y583337D02*
X116841D01*
X100846Y571033D02*
X110689D01*
X100846Y557500D02*
X116841D01*
X124222Y583337D02*
Y557500D01*
Y583337D02*
X135295D01*
X138986Y582106D01*
X140217Y580876D01*
X141447Y578415D01*
Y575955D01*
X140217Y573494D01*
X138986Y572264D01*
X135295Y571033D01*
X124222D01*
X132835D02*
X141447Y557500D01*
X169744Y583337D02*
Y557500D01*
Y583337D02*
X180817D01*
X184508Y582106D01*
X185738Y580876D01*
X186969Y578415D01*
Y574724D01*
X185738Y572264D01*
X184508Y571033D01*
X180817Y569803D01*
X169744D01*
X201732Y583337D02*
X191890Y557500D01*
X201732Y583337D02*
X211575Y557500D01*
X195581Y566112D02*
X207884D01*
X233720Y579646D02*
X231260Y582106D01*
X227569Y583337D01*
X222648D01*
X218957Y582106D01*
X216496Y579646D01*
Y577185D01*
X217726Y574724D01*
X218957Y573494D01*
X221417Y572264D01*
X228799Y569803D01*
X231260Y568573D01*
X232490Y567343D01*
X233720Y564882D01*
Y561191D01*
X231260Y558730D01*
X227569Y557500D01*
X222648D01*
X218957Y558730D01*
X216496Y561191D01*
X247254Y583337D02*
Y557500D01*
X238642Y583337D02*
X255866D01*
X286624D02*
Y557500D01*
X278012Y583337D02*
X295236D01*
X307539D02*
X305079Y582106D01*
X302618Y579646D01*
X301388Y577185D01*
X300157Y573494D01*
Y567343D01*
X301388Y563652D01*
X302618Y561191D01*
X305079Y558730D01*
X307539Y557500D01*
X312461D01*
X314921Y558730D01*
X317382Y561191D01*
X318612Y563652D01*
X319843Y567343D01*
Y573494D01*
X318612Y577185D01*
X317382Y579646D01*
X314921Y582106D01*
X312461Y583337D01*
X307539D01*
X328455D02*
Y557500D01*
Y583337D02*
X339528D01*
X343219Y582106D01*
X344449Y580876D01*
X345679Y578415D01*
Y574724D01*
X344449Y572264D01*
X343219Y571033D01*
X339528Y569803D01*
X328455D01*
X382589Y588258D02*
X380128Y585797D01*
X377667Y582106D01*
X375207Y577185D01*
X373976Y571033D01*
Y566112D01*
X375207Y559961D01*
X377667Y555039D01*
X380128Y551348D01*
X382589Y548888D01*
X426880Y579646D02*
X424419Y582106D01*
X420728Y583337D01*
X415807D01*
X412116Y582106D01*
X409656Y579646D01*
Y577185D01*
X410886Y574724D01*
X412116Y573494D01*
X414577Y572264D01*
X421959Y569803D01*
X424419Y568573D01*
X425650Y567343D01*
X426880Y564882D01*
Y561191D01*
X424419Y558730D01*
X420728Y557500D01*
X415807D01*
X412116Y558730D01*
X409656Y561191D01*
X441644Y583337D02*
X431801Y557500D01*
X441644Y583337D02*
X451486Y557500D01*
X435492Y566112D02*
X447795D01*
X457638Y583337D02*
Y557500D01*
Y583337D02*
X467480Y557500D01*
X477323Y583337D02*
X467480Y557500D01*
X477323Y583337D02*
Y557500D01*
X487165Y583337D02*
Y557500D01*
Y583337D02*
X503159D01*
X487165Y571033D02*
X497008D01*
X487165Y557500D02*
X503159D01*
X546220Y579646D02*
X543760Y582106D01*
X540069Y583337D01*
X535148D01*
X531457Y582106D01*
X528996Y579646D01*
Y577185D01*
X530226Y574724D01*
X531457Y573494D01*
X533917Y572264D01*
X541299Y569803D01*
X543760Y568573D01*
X544990Y567343D01*
X546220Y564882D01*
Y561191D01*
X543760Y558730D01*
X540069Y557500D01*
X535148D01*
X531457Y558730D01*
X528996Y561191D01*
X554833Y583337D02*
Y557500D01*
X580669Y583337D02*
X563445Y557500D01*
Y583337D02*
X580669D01*
X563445Y557500D02*
X580669D01*
X589281Y583337D02*
Y557500D01*
Y583337D02*
X605276D01*
X589281Y571033D02*
X599124D01*
X589281Y557500D02*
X605276D01*
X649567Y577185D02*
X648337Y579646D01*
X645876Y582106D01*
X643415Y583337D01*
X638494D01*
X636033Y582106D01*
X633573Y579646D01*
X632343Y577185D01*
X631112Y573494D01*
Y567343D01*
X632343Y563652D01*
X633573Y561191D01*
X636033Y558730D01*
X638494Y557500D01*
X643415D01*
X645876Y558730D01*
X648337Y561191D01*
X649567Y563652D01*
X664331Y583337D02*
X661870Y582106D01*
X659409Y579646D01*
X658179Y577185D01*
X656949Y573494D01*
Y567343D01*
X658179Y563652D01*
X659409Y561191D01*
X661870Y558730D01*
X664331Y557500D01*
X669252D01*
X671713Y558730D01*
X674173Y561191D01*
X675404Y563652D01*
X676634Y567343D01*
Y573494D01*
X675404Y577185D01*
X674173Y579646D01*
X671713Y582106D01*
X669252Y583337D01*
X664331D01*
X685246D02*
Y557500D01*
Y583337D02*
X696319D01*
X700010Y582106D01*
X701240Y580876D01*
X702470Y578415D01*
Y574724D01*
X701240Y572264D01*
X700010Y571033D01*
X696319Y569803D01*
X685246D01*
X711083Y583337D02*
Y557500D01*
Y583337D02*
X722156D01*
X725846Y582106D01*
X727077Y580876D01*
X728307Y578415D01*
Y574724D01*
X727077Y572264D01*
X725846Y571033D01*
X722156Y569803D01*
X711083D01*
X736919Y583337D02*
Y557500D01*
Y583337D02*
X752913D01*
X736919Y571033D02*
X746762D01*
X736919Y557500D02*
X752913D01*
X760295Y583337D02*
Y557500D01*
Y583337D02*
X771368D01*
X775059Y582106D01*
X776289Y580876D01*
X777520Y578415D01*
Y575955D01*
X776289Y573494D01*
X775059Y572264D01*
X771368Y571033D01*
X760295D01*
X768907D02*
X777520Y557500D01*
X804587Y588258D02*
X807047Y585797D01*
X809508Y582106D01*
X811969Y577185D01*
X813199Y571033D01*
Y566112D01*
X811969Y559961D01*
X809508Y555039D01*
X807047Y551348D01*
X804587Y548888D01*
M02*
